<svg xmlns="http://www.w3.org/2000/svg" width="384.969" height="264.666" viewBox="0 0 384.969 264.666">
  <g id="menu_3_" data-name="menu (3)" transform="translate(0 -60.152)">
    <g id="Menu">
      <path id="Trazado_1" data-name="Trazado 1" d="M12.03,84.212H372.939a12.03,12.03,0,0,0,0-24.06H12.03a12.03,12.03,0,1,0,0,24.06Z" fill="#fff"/>
      <path id="Trazado_2" data-name="Trazado 2" d="M372.939,180.455H12.03a12.03,12.03,0,1,0,0,24.06H372.939a12.03,12.03,0,1,0,0-24.06Z" fill="#fff"/>
      <path id="Trazado_3" data-name="Trazado 3" d="M372.939,300.758H12.03a12.03,12.03,0,1,0,0,24.06H372.939a12.03,12.03,0,1,0,0-24.06Z" fill="#fff"/>
    </g>
  </g>
</svg>
